{
  "version": 8,
  "name": "arjlover.net",
  "home": {
    "get": "http://multiki.arjlover.net/",
    "default": "tops/Recent"
  },
  "news": {
    "get": "http://multiki.arjlover.net/",
    "list": "tbody tr td b",
    "title": "",
    "details_head": "<meta name=\"viewport\" content=\"width=device-width,user-scalable=no,maximum-scale=1,initial-scale=1\">",
    "details_html": "",
    "date": "b"
  },
  "crawl": {
    "query": "engine = ?",
    "get": "crawls",
    "list": "tbody tr.o, tr.e",
    "title": "td.l",
    "details": "td.l:regex(.*href=\"([^\"]*)\".*)",
    "date": "td:eq(2)",
    "size": "td.r",
    "torrent": "a[href*=torrent]:regex(.*href=\"([^\"]*)\".*)"
  },
  "crawls": {
    "Mlt": "http://multiki.arjlover.net/multiki/indext.html",
    "Flm": "http://film.arjlover.net/film/indext.html",
    "Fls": "http://filmiki.arjlover.net/filmiki/indext.html"
  },
  "crawl_update": {
    "get": "crawls_update",
    "max": "30",
    "list": "tbody tr.o, tr.e",
    "title": "td.l",
    "downloads": "td:eq(2)",
    "torrent": "a[href*=torrent]:regex(.*href=\"([^\"]*)\".*)"
  },
  "crawls_update": {
    "Mlt": "http://multiki.arjlover.net/multiki/indexp.html",
    "Flm": "http://film.arjlover.net/film/indexp.html",
    "Fls": "http://filmiki.arjlover.net/filmiki/indexp.html"
  },
  "top": {
    "get": "tops",
    "grid": "crawl",
    "update": "details"
  },
  "tops": {
    "Recent": "substr(date,-4,4)||case substr(date,-8,3) when 'Jan' then '01' when 'Feb' then '02' when 'Mar' then '03' when 'Apr' then '04' when 'May' then '05' when 'Jun' then '06' when 'Jul' then '07' when 'Aug' then '08' when 'Sep' then '09' when 'Oct' then '10' when 'Nov' then '11' when 'Dec' then '12' end ||substr('00'||trim(substr(date,1,2)),-2,2) desc",
    "Top": "last/3600000 desc, downloads desc"
  },
  "details": {
    "image": "tr > td > a > img:regex(.*src=\"([^\"]*)\".*)",
    "_seed": "tr:nth-child(2) > td:nth-child(2):regex(.*Seeders:([0-9]+).*)",
    "_leech": "tr:nth-child(2) > td:nth-child(2):regex(.*Leechers:([0-9]+).*)"
  },
  "search": {
    "get": "substr(date,-4,4)||case substr(date,-8,3) when 'Jan' then '01' when 'Feb' then '02' when 'Mar' then '03' when 'Apr' then '04' when 'May' then '05' when 'Jun' then '06' when 'Jul' then '07' when 'Aug' then '08' when 'Sep' then '09' when 'Oct' then '10' when 'Nov' then '11' when 'Dec' then '12' end ||substr('00'||trim(substr(date,1,2)),-2,2) desc",
    "grid": "crawl",
    "update": "details"
  },
  "favs": {
    "query": "engine = ? and fav = 1",
    "get": "substr(date,-4,4)||case substr(date,-8,3) when 'Jan' then '01' when 'Feb' then '02' when 'Mar' then '03' when 'Apr' then '04' when 'May' then '05' when 'Jun' then '06' when 'Jul' then '07' when 'Aug' then '08' when 'Sep' then '09' when 'Oct' then '10' when 'Nov' then '11' when 'Dec' then '12' end ||substr('00'||trim(substr(date,1,2)),-2,2) desc",
    "grid": "crawl",
    "update": "details"
  }
}
